x	ba	bam	bms	aam	ams	cih	el	bl	qtd	qrd	cd	4	8	16	32	64	128	256	512	1024	2048	4096	8192	16384	32768	65536	131072	262144	524288
16	32	32	8192	8	2048	sctk_collectives_init_opt_messages	8192	131072	16384	2048	65536	140.53	114.18	120.46	134.89	138.81	121.2	119.97	128.73	192.85	218.34	190.79	224.02	273.22	420.62	600.02	1072.5	2166.94	3825.94
16	32	32	1024	4	2048	sctk_collectives_init_opt_noalloc_split_messages	2048	32768	4096	4096	16384	151.27	117.32	117.37	153.66	122.76	119.8	188.21	129.55	172.94	201.63	223.75	229.89	300.83	408.11	662.95	1352.19	2819.18	5743.12
16	4	16	2048	4	1024	sctk_collectives_init_opt_noalloc_split_messages	16384	4096	4096	16384	8192	298.59	260.86	290.88	252.63	337.97	283.65	217.0	285.84	249.26	389.1	425.46	400.81	503.12	561.23	935.66	2305.82	4767.66	9484.69
16	16	32	16384	32	8192	sctk_collectives_init_opt_messages	2048	16384	16384	4096	32768	262.98	210.89	216.11	220.85	246.64	221.33	258.35	134.54	162.19	167.01	206.67	268.29	312.25	452.59	721.16	1136.21	2037.79	4050.66
16	2	32	1024	4	2048	sctk_collectives_init_opt_messages	8192	8192	2048	4096	131072	158.83	121.36	125.15	166.24	128.06	123.07	137.77	193.13	175.3	176.84	188.81	272.43	340.63	419.83	638.9	1088.01	1991.29	3851.19
16	16	2	1024	2	8192	sctk_collectives_init_opt_messages	4096	16384	4096	4096	16384	368.11	387.49	282.94	386.36	406.94	292.76	410.58	318.07	385.54	365.9	326.16	451.29	424.51	651.75	848.73	1160.89	2159.38	3910.81
16	2	32	8192	2	1024	sctk_collectives_init_opt_messages	2048	32768	2048	2048	65536	165.77	145.58	147.82	171.99	152.82	151.28	192.78	177.64	179.23	190.35	199.68	252.99	306.01	433.74	661.07	1191.17	2002.75	3895.91
16	16	16	16384	2	8192	sctk_collectives_init_opt_messages	2048	65536	16384	8192	131072	209.11	145.93	147.7	142.35	205.22	145.96	147.56	153.94	192.68	196.22	209.4	230.46	332.22	426.46	696.93	1077.99	2035.74	3820.83
16	8	4	2048	4	16384	sctk_collectives_init_opt_messages	8192	8192	4096	2048	131072	241.92	272.83	255.31	193.75	319.22	294.83	192.92	279.13	242.05	260.74	276.44	370.89	482.71	573.41	994.41	1223.41	2736.16	4002.96
16	4	32	2048	2	4096	sctk_collectives_init_opt_messages	8192	8192	8192	2048	8192	179.87	156.31	158.85	185.18	162.6	158.54	190.29	219.12	203.27	185.62	207.04	237.7	338.99	486.22	667.21	1119.95	2026.79	3875.84
16	8	8	8192	8	2048	sctk_collectives_init_opt_noalloc_split_messages	16384	32768	16384	4096	131072	290.03	265.57	308.34	310.13	291.7	277.91	337.88	232.97	396.82	335.46	388.35	416.12	458.83	548.95	756.16	2011.18	5258.42	10565.94
16	8	32	8192	8	8192	sctk_collectives_init_opt_noalloc_split_messages	2048	16384	16384	0	32768	140.16	115.19	151.61	125.77	128.67	142.41	141.1	164.97	137.44	171.57	221.88	262.84	304.31	427.31	641.67	1461.93	2771.24	5638.6
16	4	2	4096	4	2048	sctk_collectives_init_opt_noalloc_split_messages	16384	4096	8192	0	65536	261.92	279.13	247.29	263.32	241.79	213.58	289.35	198.41	281.88	299.35	260.43	357.66	467.55	634.19	851.14	1921.27	4247.52	9904.66
16	4	4	8192	4	1024	sctk_collectives_init_opt_messages	4096	131072	2048	4096	8192	205.06	132.0	125.18	132.91	163.81	132.85	229.64	277.95	272.23	194.79	203.14	270.83	340.56	403.21	604.2	1059.25	2174.01	3864.66
16	8	4	16384	2	1024	sctk_collectives_init_opt_noalloc_split_messages	2048	4096	8192	0	16384	285.59	232.14	271.89	285.38	346.38	285.47	302.28	215.67	283.04	266.29	317.1	411.72	421.85	524.22	658.84	2050.35	4835.0	9803.71
16	16	4	1024	2	16384	sctk_collectives_init_opt_noalloc_split_messages	8192	4096	16384	8192	131072	173.93	147.6	165.83	197.34	152.83	151.66	154.31	199.91	187.34	187.11	186.32	282.49	329.9	430.53	639.33	1362.52	2745.39	5593.43
16	32	2	8192	2	8192	sctk_collectives_init_opt_noalloc_split_messages	8192	65536	16384	2048	16384	242.13	226.31	276.79	269.98	228.89	200.06	287.73	250.2	273.52	341.71	321.08	388.2	384.64	460.75	739.44	1997.98	4531.97	8761.12
16	32	8	1024	16	8192	sctk_collectives_init_opt_noalloc_split_messages	16384	16384	8192	2048	32768	124.94	106.54	112.9	138.73	111.03	108.51	123.27	142.89	181.52	159.15	188.37	229.61	311.09	445.91	717.66	1447.57	2847.08	5843.49
16	16	4	2048	32	16384	sctk_collectives_init_opt_messages	4096	4096	4096	2048	32768	191.75	183.31	188.63	203.23	197.34	188.93	228.69	199.21	148.99	132.01	159.89	290.05	377.05	419.55	759.83	1109.31	2032.93	3975.85
16	32	2	2048	2	16384	sctk_collectives_init_opt_noalloc_split_messages	4096	131072	4096	4096	65536	246.96	242.81	179.42	303.75	256.75	288.36	308.39	289.85	335.13	365.61	297.99	348.49	382.88	538.82	805.34	1891.89	3635.85	8792.86
16	8	4	16384	32	16384	sctk_collectives_init_opt_noalloc_split_messages	2048	32768	2048	8192	16384	169.26	159.43	161.46	186.98	157.66	158.87	190.74	183.96	119.19	151.69	161.29	243.94	310.03	420.25	633.37	1331.23	2792.83	5720.71
16	4	4	2048	32	2048	sctk_collectives_init_opt_messages	4096	4096	2048	16384	8192	278.48	216.59	193.13	234.87	197.68	129.67	201.62	134.92	172.34	190.31	225.58	318.54	366.53	662.47	654.45	1135.76	2072.41	3971.23
16	16	2	16384	2	16384	sctk_collectives_init_opt_messages	4096	65536	4096	16384	65536	272.43	241.64	219.4	319.88	327.85	224.52	365.87	336.18	325.89	367.55	359.9	351.07	445.26	538.7	738.56	1334.93	2093.4	3954.79
16	2	4	8192	16	4096	sctk_collectives_init_opt_noalloc_split_messages	4096	65536	2048	8192	32768	144.13	103.89	113.65	156.75	108.02	195.38	123.47	163.98	149.21	192.55	239.55	245.64	321.47	418.24	671.02	1272.37	2592.61	5491.06
16	4	8	16384	32	8192	sctk_collectives_init_opt_messages	4096	8192	16384	0	16384	297.38	245.82	239.95	279.48	265.39	323.38	306.68	223.37	171.96	256.47	309.33	330.17	420.1	614.01	862.26	1273.43	2684.41	4607.79
16	32	4	4096	2	2048	sctk_collectives_init_opt_noalloc_split_messages	8192	65536	8192	8192	16384	169.72	145.38	277.18	252.19	150.83	149.13	157.01	194.47	209.79	169.81	182.44	231.15	280.86	397.31	681.91	1248.08	2616.1	5219.74
16	32	32	4096	4	8192	sctk_collectives_init_opt_messages	4096	32768	4096	8192	16384	211.39	210.74	250.39	152.2	285.38	227.03	212.91	250.88	200.11	280.84	278.34	295.69	483.79	514.96	633.07	1194.66	2860.9	4030.95
16	16	2	4096	2	2048	sctk_collectives_init_opt_messages	2048	4096	2048	8192	8192	213.47	142.98	145.04	188.61	150.42	191.13	163.19	174.02	167.72	194.83	247.99	294.56	327.93	431.66	705.58	1133.54	2027.78	3967.05
16	4	16	1024	16	8192	sctk_collectives_init_opt_noalloc_split_messages	16384	32768	2048	0	131072	259.65	190.49	236.48	197.02	258.33	269.82	267.41	255.56	238.89	296.95	370.24	309.02	402.52	529.53	905.95	1982.9	4478.95	9712.77
16	4	16	2048	2	16384	sctk_collectives_init_opt_messages	2048	16384	2048	16384	8192	221.81	147.66	143.22	153.45	185.03	143.78	151.44	199.1	161.61	180.13	239.46	241.54	293.32	455.19	662.63	1121.69	2068.27	3943.4
16	2	16	2048	4	2048	sctk_collectives_init_opt_messages	4096	65536	4096	16384	32768	144.95	124.39	131.55	163.22	126.68	137.58	180.53	145.22	227.22	166.72	225.07	295.23	273.16	407.18	681.73	1336.54	2084.49	3890.59
16	4	8	8192	8	8192	sctk_collectives_init_opt_noalloc_split_messages	2048	4096	4096	8192	32768	169.21	111.41	109.51	109.19	132.22	114.76	127.95	159.16	144.81	158.74	237.51	286.69	328.29	449.64	657.41	1461.48	2795.92	5592.7
16	16	16	1024	16	4096	sctk_collectives_init_opt_messages	16384	131072	4096	4096	8192	256.13	200.94	193.47	209.84	296.82	193.56	157.24	204.56	166.78	287.63	357.57	246.53	343.85	493.01	941.38	1130.48	2388.73	4517.66
16	32	32	2048	16	4096	sctk_collectives_init_opt_messages	4096	65536	16384	0	65536	192.76	107.31	107.31	168.03	110.99	117.48	132.19	165.42	164.78	192.47	194.68	261.6	292.69	382.97	692.4	1092.17	1997.15	4029.51
16	8	32	1024	8	2048	sctk_collectives_init_opt_messages	2048	4096	2048	16384	8192	138.42	109.77	108.18	150.81	110.08	112.06	152.38	162.63	160.75	202.94	222.38	266.31	328.91	434.01	639.57	1094.04	2016.67	3876.96
16	2	2	4096	8	4096	sctk_collectives_init_opt_messages	2048	16384	4096	16384	8192	134.16	108.8	109.1	152.07	116.67	117.54	167.27	119.04	143.19	187.54	219.1	256.71	309.71	428.81	784.39	1185.96	2072.98	3855.55
16	16	4	4096	32	16384	sctk_collectives_init_opt_messages	2048	131072	2048	0	8192	245.84	195.53	191.58	193.72	191.95	226.26	217.77	206.57	120.71	150.86	181.17	265.71	308.14	409.05	649.89	1079.85	2099.25	3840.51
16	2	4	2048	32	2048	sctk_collectives_init_opt_messages	4096	4096	16384	16384	8192	184.27	181.25	179.92	207.65	182.53	127.29	169.12	162.62	170.64	183.88	223.91	276.18	354.68	436.98	640.63	1106.18	2063.64	3836.72
16	2	32	16384	16	2048	sctk_collectives_init_opt_noalloc_split_messages	2048	65536	16384	2048	32768	132.59	108.58	104.25	116.85	116.77	110.04	165.72	132.92	187.69	208.24	201.82	237.85	308.6	411.45	615.7	1258.34	2540.32	5113.95
16	8	4	4096	16	2048	sctk_collectives_init_opt_noalloc_split_messages	8192	16384	16384	8192	65536	138.39	112.86	174.85	125.13	114.19	114.96	158.15	191.57	171.27	230.61	226.03	237.62	286.62	511.52	683.09	1483.82	3013.65	5897.57
16	32	4	4096	32	4096	sctk_collectives_init_opt_noalloc_split_messages	8192	65536	2048	16384	131072	231.79	227.41	257.48	235.53	239.36	280.12	128.4	142.46	134.55	217.52	191.64	228.39	282.34	414.05	603.13	1311.96	2575.32	5382.85
16	8	4	8192	8	8192	sctk_collectives_init_opt_messages	2048	16384	4096	4096	32768	136.91	112.87	122.64	162.86	119.49	138.87	267.84	135.33	166.0	154.75	215.67	246.86	323.16	439.61	677.32	1172.89	2035.86	3951.58
16	32	4	16384	2	8192	sctk_collectives_init_opt_messages	8192	32768	16384	4096	8192	176.74	154.68	155.03	197.17	159.45	156.0	193.75	200.15	183.23	178.71	196.85	236.24	308.81	407.03	673.38	1233.73	2075.84	3874.69
16	32	16	4096	4	4096	sctk_collectives_init_opt_noalloc_split_messages	8192	131072	4096	4096	65536	165.66	121.76	123.24	184.61	135.53	125.46	123.91	205.67	167.44	203.12	194.62	284.09	279.35	390.33	644.28	1268.45	2571.9	5377.65
16	2	4	2048	4	8192	sctk_collectives_init_opt_noalloc_split_messages	16384	32768	2048	8192	16384	138.22	114.22	116.72	116.57	138.69	120.22	117.73	119.03	171.94	189.84	186.42	213.73	299.37	377.91	637.68	1496.56	2997.37	5642.53
16	2	16	1024	32	1024	sctk_collectives_init_opt_messages	4096	65536	2048	4096	16384	217.41	206.2	230.08	213.81	126.61	205.36	131.53	185.75	204.23	171.06	221.93	256.27	319.52	403.41	642.32	1191.14	2120.75	3882.79
16	4	16	4096	8	2048	sctk_collectives_init_opt_messages	4096	8192	8192	8192	8192	136.23	113.51	114.55	185.7	124.11	116.3	181.3	167.48	206.08	189.23	195.82	253.78	368.11	438.06	661.57	1146.42	2012.81	3922.8
16	8	4	2048	16	4096	sctk_collectives_init_opt_noalloc_split_messages	8192	32768	8192	16384	65536	127.3	101.05	102.13	137.07	109.36	106.43	106.62	174.7	182.2	194.67	184.64	230.21	280.3	396.83	647.47	1514.34	2966.56	5897.85
16	16	2	16384	8	2048	sctk_collectives_init_opt_noalloc_split_messages	2048	131072	8192	16384	32768	146.1	113.54	113.9	132.66	122.64	117.41	152.77	154.87	185.31	197.0	214.86	257.4	313.07	412.97	666.5	1286.11	2589.83	5086.87
16	32	8	4096	16	8192	sctk_collectives_init_opt_messages	2048	8192	4096	16384	16384	135.38	108.3	108.46	139.94	114.14	127.34	163.46	129.66	157.85	164.03	214.47	266.65	347.39	440.89	638.28	1141.74	2015.75	3919.72
16	2	4	2048	4	16384	sctk_collectives_init_opt_noalloc_split_messages	2048	131072	16384	8192	65536	143.29	127.33	120.13	119.69	146.09	130.08	141.75	126.21	169.69	182.71	171.84	258.72	301.24	423.67	616.76	1266.68	2554.77	5093.06
16	16	8	8192	32	1024	sctk_collectives_init_opt_noalloc_split_messages	8192	4096	16384	8192	131072	267.61	197.22	204.1	232.92	112.35	121.06	135.25	193.36	183.28	177.97	194.98	324.47	347.8	433.57	675.7	1405.65	2896.86	5767.67
16	2	16	2048	16	16384	sctk_collectives_init_opt_noalloc_split_messages	16384	16384	4096	8192	65536	134.1	109.73	120.01	139.96	116.09	113.58	118.42	140.6	196.92	159.18	156.2	228.82	370.64	438.22	657.5	1416.75	2934.61	5691.45
16	16	2	2048	4	2048	sctk_collectives_init_opt_noalloc_split_messages	8192	131072	4096	2048	131072	195.74	117.18	118.71	125.55	152.98	119.33	120.19	121.26	194.07	168.39	187.37	222.87	266.59	407.26	592.7	1315.15	2565.3	5162.92
16	2	4	16384	8	4096	sctk_collectives_init_opt_messages	16384	16384	16384	4096	32768	141.04	114.47	117.72	170.45	135.74	119.19	123.31	185.86	157.04	189.55	195.61	432.09	329.48	430.07	650.41	1090.63	2087.93	3904.85
16	2	8	4096	32	1024	sctk_collectives_init_opt_noalloc_split_messages	2048	4096	2048	16384	8192	213.05	168.78	165.49	197.47	97.6	111.85	132.92	179.29	154.15	199.78	201.8	253.88	321.44	437.93	674.45	1390.93	2733.07	5553.17
16	8	2	16384	32	8192	sctk_collectives_init_opt_messages	2048	16384	16384	4096	131072	220.87	211.31	235.73	218.53	216.93	247.96	231.81	116.47	148.99	171.33	213.09	253.21	307.8	460.63	649.19	1104.45	2060.0	3882.04
16	2	16	8192	4	16384	sctk_collectives_init_opt_noalloc_split_messages	8192	4096	8192	2048	32768	146.49	107.17	120.34	149.32	111.63	110.34	141.42	141.99	136.69	161.7	162.91	233.55	327.0	419.85	652.41	1100.51	2000.21	3885.94
16	4	32	1024	16	8192	sctk_collectives_init_opt_messages	4096	65536	4096	2048	131072	126.59	107.76	106.29	146.44	110.11	106.97	117.46	171.28	122.66	138.26	196.75	219.9	273.25	400.36	598.36	1078.54	1994.26	3951.18
16	4	2	2048	4	16384	sctk_collectives_init_opt_noalloc_split_messages	2048	16384	8192	16384	131072	121.24	106.7	98.88	98.93	133.69	113.69	104.69	134.61	166.98	151.5	171.35	275.93	294.69	406.26	624.86	1349.04	2818.25	5564.41
16	4	8	8192	2	2048	sctk_collectives_init_opt_noalloc_split_messages	2048	8192	8192	4096	131072	171.99	147.8	150.08	179.52	150.74	148.59	185.0	200.74	163.83	188.53	230.76	253.36	334.82	449.19	673.02	1374.56	2795.77	5709.85
16	16	4	2048	32	1024	sctk_collectives_init_opt_noalloc_split_messages	16384	8192	16384	4096	32768	221.7	213.26	227.14	227.68	105.57	112.97	158.71	167.49	178.56	178.79	183.46	254.84	356.73	424.88	644.46	1440.03	2930.57	5859.42
16	16	4	8192	16	4096	sctk_collectives_init_opt_messages	2048	8192	2048	4096	8192	186.06	106.7	98.07	119.85	109.85	107.96	120.2	170.86	125.76	190.32	213.26	231.77	326.25	438.31	662.51	1108.12	2004.34	3882.42
16	16	2	2048	4	1024	sctk_collectives_init_opt_messages	2048	8192	4096	2048	16384	179.18	117.6	113.29	144.37	151.81	124.0	127.62	179.45	164.19	212.55	205.89	238.78	309.48	422.6	701.54	1103.77	2103.06	3919.34
16	4	16	2048	32	16384	sctk_collectives_init_opt_noalloc_split_messages	4096	131072	8192	8192	16384	252.26	244.76	257.95	247.65	259.59	284.51	291.73	271.71	173.37	153.99	171.68	244.86	382.84	525.57	626.42	1267.41	2560.75	5114.26
16	16	16	2048	16	2048	sctk_collectives_init_opt_noalloc_split_messages	4096	131072	4096	16384	16384	189.62	104.24	123.94	167.37	112.54	107.73	182.94	173.22	161.5	209.73	218.69	226.52	321.67	393.85	597.98	1255.06	2556.69	5246.71
16	32	4	16384	32	8192	sctk_collectives_init_opt_messages	2048	16384	2048	4096	65536	217.32	205.57	223.33	206.31	211.92	252.13	219.28	132.25	136.17	161.36	209.14	285.39	309.13	456.89	679.33	1102.7	2092.03	3832.03
16	8	16	16384	4	8192	sctk_collectives_init_opt_messages	2048	16384	2048	2048	16384	179.31	118.46	123.2	116.97	149.01	121.8	125.72	189.68	126.98	182.87	234.64	224.29	314.75	433.48	631.37	1083.0	1992.64	3976.33
16	4	4	1024	16	1024	sctk_collectives_init_opt_noalloc_split_messages	4096	65536	4096	16384	16384	136.39	108.52	107.06	160.62	113.03	118.87	220.35	161.63	171.18	222.78	204.45	257.09	312.79	399.57	615.91	1267.73	2964.94	5326.36
16	4	16	2048	16	4096	sctk_collectives_init_opt_noalloc_split_messages	8192	65536	8192	8192	65536	125.23	101.5	103.7	103.73	146.83	161.92	119.03	126.33	173.18	212.24	183.24	225.15	297.98	389.82	645.14	1282.15	2548.12	5168.24
16	4	2	2048	4	2048	sctk_collectives_init_opt_messages	16384	131072	2048	16384	65536	150.79	118.58	118.43	130.24	155.57	123.52	118.62	124.75	169.93	175.45	235.99	211.24	291.66	400.05	603.42	1021.69	2178.07	3873.27
16	4	4	2048	4	8192	sctk_collectives_init_opt_noalloc_split_messages	2048	16384	8192	16384	65536	138.96	120.4	119.05	149.65	132.59	123.73	129.08	131.95	135.52	190.17	202.34	233.17	297.16	433.1	670.74	1362.34	2757.16	5691.25
